{
  "author": "",
  "dependencies": [],
  "license": "",
  "name": "Administrator-common",
  "operatingsystem_support": [],
  "project_page": "",
  "requirements": [],
  "source": "https://bitbucket.org/duyuyang/anz-puppet-windows",
  "summary": "",
  "tags": [],
  "version": "0.1.0"
}